…
end_with_cpr
```

    ## # A tibble: 356 × 21
    ##    game_date  game_id    home_team away_team    home_score away_score win_team 
    ##    <date>     <chr>      <chr>     <chr>             <int>      <int> <chr>    
    ##  1 2023-10-24 0022300061 Nuggets   Lakers              119        107 Nuggets  
    ##  2 2023-10-24 0022300062 Warriors  Suns                104        108 Suns     
    ##  3 2023-10-25 0022300063 Hornets   Hawks               116        110 Hornets  
    ##  4 2023-10-25 0022300064 Pacers    Wizards             143        120 Pacers   
    ##  5 2023-10-25 0022300065 Knicks    Celtics             104        108 Celtics  
    ##  6 2023-10-25 0022300066 Magic     Rockets             116         86 Magic    
    ##  7 2023-10-25 0022300067 Nets      Cavaliers           113        114 Cavaliers
    ##  8 2023-10-25 0022300068 Heat      Pistons             103        102 Heat     
    ##  9 2023-10-25 0022300069 Raptors   Timberwolves         97         94 Raptors  
    ## 10 2023-10-25 0022300070 Bulls     Thunder             104        124 Thunder  
    ## # ℹ 346 more rows
    ## # ℹ 14 more variables: win_score <int>, lose_team <chr>, lose_score <int>,
    ## #   desc <chr>, home_off_ppg <dbl>, home_def_ppg <dbl>, away_off_ppg <dbl>,
    ## #   away_def_ppg <dbl>, home_exp <dbl>, away_exp <dbl>, home_off_cpr <dbl>,
    ## #   home_def_cpr <dbl>, away_off_cpr <dbl>, away_def_cpr <dbl>
…
